{
  "name": "LandingPage",
  "type": "SCRIPT",
  "extension": "",
  "content": "import { Component,\tOnInit,\tOnDestroy, ChangeDetectorRef, ViewChildren,\tQueryList, ChangeDetectionStrategy,\tElementRef,\tInput, AfterViewInit, ViewChild,} from \"@angular/core\";\nimport { FormGroup } from \"@angular/forms\";\nimport { XelerateService } from \"src/shared/services/xelerate.service\";\nimport { SimpleBaseClass } from \"src/shared/templates/SimpleBaseClass.component\";\nimport LandingPageInfo from \"./landingpage-info.json\";\nimport { ContextProvider } from \"src/shared/services/context-provider.service\";\nimport { UtilityServices } from 'src/shared/services/utility.service';\nimport { Maintenance } from 'src/shared/services/maintenance.service';\nimport { XelerateMenuComponent } from 'src/shared/xelerate-groups/xelerate-menu/xelerate-menu.component';\n@Component({\n\tselector: \"app-landingpage\",\n\ttemplateUrl: \"./landingpage.component.html\",\n\tproviders: [ContextProvider],\n\tchangeDetection: ChangeDetectionStrategy.OnPush,\n})\nexport class LandingPage extends SimpleBaseClass {\n    name: string = \"LandingPage\";\n\tconstructor(\n\t\tpublic xelerate: XelerateService,\n\t\tpublic cp: ContextProvider,\n\t\tpublic changeDetectorRef: ChangeDetectorRef,\n\t\tpublic elmRef: ElementRef,\n\t\tpublic maintenance: Maintenance\n\t) {\n\t\tsuper(xelerate, cp, changeDetectorRef, elmRef);\n\t\tthis.metaInfo = UtilityServices.copyJSON(LandingPageInfo);\n\t}\n\tngAfterViewInit() {\n\t\tthis.personalizeView();\n\t\tthis.getContent();\n\t\tlet usrId = this.xelerate.data.transferData.get(\"userId\");\n\t\tif(usrId)\n\t\tthis.xelerate.setValue(\"userLanding\",usrId);\n\t}\n\tasync personalizeView() {\n\t\tthis.prefs = await this.xelerate.server.getContent({ url: \"assets/\" + this.name + \"_prefs.json\" });\n\t\tthis.xelerate.personalizeWidgets(this);\n\t}\n\tasync getContent() {\n\t\tlet menu = this.cp.groupsMap.get(\"menu\") as XelerateMenuComponent;\n\t\tif(menu){\n\t\t\tlet menuItems = [];\n\t\t\t/* menuItems expects an array of objects in the following example format\n\t\t\tmenuname -> Name to be displayed\n\t\t\ticon -> icon for the menu\n\t\t\tmenuid -> any unique id\n\t\t\tisParent -> 'Y' if you want to add sublevels to menu\n\t\t\tchilds -> array of objects whose keys are same as parent menu\n\t\t\t[{'menuname':'SearchCustomer','icon':'fa-lg fa fa-fw fa-arrow-circle-o-right','menuid':'wt_tab_350_000001936','isparent':'Y','childs':[{'menuname':'ChildMenu','icon':'fa-lg fa fa-fw fa-adjust','menuid':'wt_tab_191_000001942','isparent':''}]}] */\n\t\t\tif(menuItems.length > 0){\n\t\t\t\tmenu.updateMenuItems(menuItems);\n\t\t\t}\n\t\t}\n\t\tthis.xelerate.jQuery(this.xelerate.jQuery(\".xle-menu\").children()[0]).find('a')[0].click();\n\t}\n\tmenuAction(evt) {\n\t\tlet launcherName = evt.currentTarget.text.split(\" \").join(\"\");\n\t\t//if(targetText == \"Home\"){\n\t\tlet param = {\n\t\t\tcompName: launcherName,\n\t\t\trefId: \"LandingPage\"\n\t\t};\n\t\tthis.xelerate.loadSubComponent(param);\n\t\t//}\n\t}\n\n\tlaunchLogin(){\n\t\tlet param = {\n\t\t\tcompName: \"Login\",\n\t\t\t//refId: \"Login\",\n\t\t\t//transData: {usrId:usr,pwd:pwd}\n\t\t};\n\t\tthis.xelerate.loadComponent(param);\n\t}\n}"
}