{
  "name": "Login",
  "type": "SCRIPT",
  "childs": [],
  "childsMap": {},
  "extension": "",
  "content": "//REMOTE gg\nimport { Component,\tOnInit,\tOnDestroy, ChangeDetectorRef, ViewChildren,\tQueryList, ChangeDetectionStrategy,\tElementRef,\tInput, AfterViewInit, ViewChild,} from \"@angular/core\";\nimport { FormGroup } from \"@angular/forms\";\nimport { XelerateService } from \"src/shared/services/xelerate.service\";\nimport { SimpleBaseClass } from \"src/shared/templates/SimpleBaseClass.component\";\nimport LoginInfo from \"./login-info.json\";\nimport { ContextProvider } from \"src/shared/services/context-provider.service\";\nimport { Maintenance } from 'src/shared/services/maintenance.service';\nimport { UtilityServices } from 'src/shared/services/utility.service';\n@Component({\n\tselector: \"app-login\",\n\ttemplateUrl: \"./login.component.html\",\n\tproviders: [ContextProvider],\n\tchangeDetection: ChangeDetectionStrategy.OnPush,\n})\nexport class Login extends SimpleBaseClass {\n    name: string = \"Login\";\n\ttoggle: boolean;\n\tisOffline:boolean = true;\n\tconstructor(\n\t\tpublic xelerate: XelerateService,\n\t\tpublic cp: ContextProvider,\n\t\tpublic changeDetectorRef: ChangeDetectorRef,\n\t\tpublic elmRef: ElementRef,\n\t\tpublic maintenance: Maintenance\n\t) {\n\t\tsuper(xelerate, cp, changeDetectorRef, elmRef);\n        this.metaInfo = UtilityServices.copyJSON(LoginInfo);\n\t}\n\tngAfterViewInit() {\n\t\tthis.personalizeView();\n\t}\n\tasync personalizeView() {\n\t\tthis.prefs = await this.xelerate.server.getContent({ url: \"assets/\" + this.name + \"_prefs.json\" });\n\t\tthis.xelerate.personalizeWidgets(this);\n\t}\n\tlogin(){\t\t\n        let usrId = this.xelerate.getValue(\"customerId\");\n        let password = this.xelerate.getValue(\"password\");\n        let params = { callback: this.loginCB, context: this };\n        params[\"userId\"] = usrId;\n\t\tparams[\"password\"] = password;\n\t\tUtilityServices.startLoader(document.getElementsByClassName(\"xelerate-wrapper\")[0]);\n        this.xelerate.server.login(params);\n\t}\n\tloginCB(params) {\n        if (params.resObj.header.status == \"SUCCESS\") {\n            this.xelerate.data.transferData.set(\"userId\", params.resObj.header.userId);\n            this.xelerate.loadComponent({ compName: \"LandingPage\" });\n        }else{\n\t\t\tUtilityServices.stopLoader(document.getElementsByClassName(\"xelerate-wrapper\")[0]);\n\t\t\tthis.xelerate.displayPopup({\"msg\":params.resObj.header.errMsg,\"type\":\"error\"});\n\t\t}\n    }\n}"
}
