{
  "name": "SearchCust6",
  "sourceModule": "BE",
  "sourceAssetName": "Cust6",
  "sourceAssetType": "ENTITY",
  "type": "SERVICE",
  "serviceType": "MODEL_SEARCH_SERVICE",
  "xState": "",
  "childs": [],
  "childsMap": {},
  "beanClass": "",
  "servicePath": "",
  "query": "",
  "bindvars": [],
  "serType": "CUSTOM"
}