{
  "name": "STYLE_CUSTOMISER",
  "desc": "",
  "type": "STYLE_CUSTOMISER",
  "childs": [],
  "customizer": {
    "label-color-const-inherit": "No Color",
    "label-color-const-transparent": "Transparent",
    "label-color-const-white": "White",
    "label-color-const-black": "Black",
    "label-color-gray-fadedwhite": "X3 FadedWhite",
    "label-color-gray-silver": "X3 Silver",
    "label-color-gray-lunar": "X3 Lunar",
    "label-color-gray-chromium": "X3 Chromium",
    "label-color-gray-smoke": "X3 Smoke",
    "label-color-gray-ebony": "X3 Ebony",
    "label-color-gray-coal": "X3 Coal",
    "label-color-gray-pewter": "X3 Pewter",
    "label-color-gray-steelgray": "X3 SteelGray",
    "label-color-gray-granite": "X3 Granite",
    "label-color-translucent-white-05": "X3 White05",
    "label-color-translucent-white-15": "X3 White15",
    "label-color-translucent-white-30": "X3 White30",
    "label-color-translucent-white-45": "X3 White45",
    "label-color-translucent-white-70": "X3 White70",
    "label-color-translucent-black-05": "X3 Black05",
    "label-color-translucent-black-15": "X3 Black15",
    "label-color-translucent-black-30": "X3 Black30",
    "label-color-translucent-black-45": "X3 Black45",
    "label-color-translucent-black-70": "X3 Black70",
    "label-color-semantic-primary": "X3 Primary",
    "label-color-semantic-primary-hover": "X3 PrimaryHover",
    "label-color-semantic-primary-active": "X3 PrimaryActive",
    "label-color-semantic-primary-disabled": "X3 PrimaryDisabled",
    "label-color-semantic-info": "X3 Info",
    "label-color-semantic-info-hover": "X3 InfoHover",
    "label-color-semantic-info-active": "X3 InfoActive",
    "label-color-semantic-info-disabled": "X3 InfoDisabled",
    "label-color-semantic-success": "X3 Success",
    "label-color-semantic-success-hover": "X3 SuccessHover",
    "label-color-semantic-success-active": "X3 SuccessActive",
    "label-color-semantic-success-disabled": "X3 SuccessDisabled",
    "label-color-semantic-warning": "X3 Warning",
    "label-color-semantic-warning-hover": "X3 WarningHover",
    "label-color-semantic-warning-active": "X3 WarningActive",
    "label-color-semantic-warning-disabled": "X3 WarningDisabled",
    "label-color-semantic-danger": "X3 Danger",
    "label-color-semantic-danger-hover": "X3 DangerHover",
    "label-color-semantic-danger-active": "X3 DangerActive",
    "label-color-semantic-danger-disabled": "X3 DangerDisabled",
    "label-color-palette-azure": "X3 Azure",
    "label-color-palette-cerulean": "X3 Cerulean",
    "label-color-palette-paleblue": "X3 PaleBlue",
    "label-color-palette-babyblue": "X3 BabyBlue",
    "label-color-palette-orange": "X3 Orange",
    "label-color-palette-redorange": "X3 RedOrange",
    "label-color-palette-apricot": "X3 Apricot",
    "label-color-palette-redviolet": "X3 RedViolet",
    "label-color-palette-plum": "X3 Plum",
    "color-const-inherit": "inherit",
    "color-const-transparent": "transparent",
    "color-const-white": "rgba(255, 255, 255, 1)",
    "color-const-black": "rgba(0, 0, 0, 1)",
    "color-gray-fadedwhite": "rgba(249, 249, 249, 1)",
    "color-gray-silver": "rgba(238, 238, 238, 1)",
    "color-gray-lunar": "rgba(220, 220, 220, 1)",
    "color-gray-chromium": "rgba(190, 190, 190, 1)",
    "color-gray-smoke": "rgba(160, 160, 160, 1)",
    "color-gray-ebony": "rgba(28, 28, 28, 1)",
    "color-gray-coal": "rgba(50, 50, 50, 1)",
    "color-gray-pewter": "rgba(70, 70, 70, 1)",
    "color-gray-steelgray": "rgba(90, 90, 90, 1)",
    "color-gray-granite": "rgba(110, 110, 110, 1)",
    "color-translucent-white-05": "rgba(255, 255, 255, 0.05)",
    "color-translucent-white-15": "rgba(255, 255, 255, 0.15)",
    "color-translucent-white-30": "rgba(255, 255, 255, 0.3)",
    "color-translucent-white-45": "rgba(255, 255, 255, 0.45)",
    "color-translucent-white-70": "rgba(255, 255, 255, 0.7)",
    "color-translucent-black-05": "rgba(0, 0, 0, 0.05)",
    "color-translucent-black-15": "rgba(0, 0, 0, 0.15)",
    "color-translucent-black-30": "rgba(0, 0, 0, 0.3)",
    "color-translucent-black-45": "rgba(0, 0, 0, 0.45)",
    "color-translucent-black-70": "rgba(0, 0, 0, 0.7)",
    "color-semantic-primary": "rgba(92, 196, 234, 1)",
    "color-semantic-primary-hover": "rgba(133, 211, 239, 1)",
    "color-semantic-primary-active": "rgba(51, 181, 229, 1)",
    "color-semantic-primary-disabled": "rgba(41, 145, 183, 1)",
    "color-semantic-info": "rgba(51, 181, 229, 1)",
    "color-semantic-info-hover": "rgba(92, 196, 234, 1)",
    "color-semantic-info-active": "rgba(41, 145, 183, 1)",
    "color-semantic-info-disabled": "rgba(31, 109, 137, 1)",
    "color-semantic-success": "rgba(5, 152, 98, 1)",
    "color-semantic-success-hover": "rgba(55, 173, 129, 1)",
    "color-semantic-success-active": "rgba(4, 122, 78, 1)",
    "color-semantic-success-disabled": "rgba(3, 91, 59, 1)",
    "color-semantic-warning": "rgba(255, 191, 0, 1)",
    "color-semantic-warning-hover": "rgba(255, 204, 51, 1)",
    "color-semantic-warning-active": "rgba(204, 153, 0, 1)",
    "color-semantic-warning-disabled": "rgba(153, 115, 0, 1)",
    "color-semantic-danger": "rgba(255, 0, 0, 1)",
    "color-semantic-danger-hover": "rgba(255, 77, 77, 1)",
    "color-semantic-danger-active": "rgba(204, 0, 0, 1)",
    "color-semantic-danger-disabled": "rgba(153, 0, 0, 1)",
    "color-palette-azure": "rgba(51, 153, 255, 1)",
    "color-palette-cerulean": "rgba(30, 132, 212, 1)",
    "color-palette-paleblue": "rgba(147, 196, 237, 1)",
    "color-palette-babyblue": "rgba(187, 210, 247, 1)",
    "color-palette-orange": "rgba(255, 151, 13, 1)",
    "color-palette-redorange": "rgba(255, 104, 37, 1)",
    "color-palette-apricot": "rgba(255, 180, 105, 1)",
    "color-palette-redviolet": "rgba(180, 0, 133, 1)",
    "color-palette-plum": "rgba(126, 0, 72, 1)",
    "lt-body-background-color": "color-gray-silver",
    "dt-body-background-color": "color-gray-ebony",
    "lt-body-text-color": "color-gray-ebony",
    "dt-body-text-color": "color-gray-fadedwhite",
    "lt-layout1-header-background-color": "color-const-white",
    "dt-layout1-header-background-color": "color-gray-coal",
    "lt-layout1-header-text-color": "color-gray-ebony",
    "dt-layout1-header-text-color": "color-gray-fadedwhite",
    "lt-layout1-header-box-shadow": "color-gray-lunar",
    "dt-layout1-header-box-shadow": "color-gray-ebony",
    "lt-layout1-sidebar-background-color": "color-const-white",
    "dt-layout1-sidebar-background-color": "color-gray-coal",
    "lt-layout1-sidebar-text-color": "color-const-white",
    "dt-layout1-sidebar-text-color": "color-gray-fadedwhite",
    "lt-layout1-sidebar-box-shadow": "color-gray-silver",
    "dt-layout1-sidebar-box-shadow": "color-gray-steelgray",
    "lt-layout1-footer-background-color": "color-const-white",
    "dt-layout1-footer-background-color": "color-gray-coal",
    "lt-layout1-footer-text-color": "color-gray-ebony",
    "dt-layout1-footer-text-color": "color-const-white",
    "lt-layout2-header-background-color": "color-palette-azure",
    "dt-layout2-header-background-color": "color-palette-azure",
    "lt-layout2-header-text-color": "color-const-white",
    "dt-layout2-header-text-color": "color-const-white",
    "lt-layout2-header-box-shadow": "color-gray-lunar",
    "dt-layout2-header-box-shadow": "color-gray-ebony",
    "lt-layout2-sidebar-background-color": "color-const-white",
    "dt-layout2-sidebar-background-color": "color-gray-coal",
    "lt-layout2-sidebar-text-color": "color-gray-ebony",
    "dt-layout2-sidebar-text-color": "color-gray-fadedwhite",
    "lt-layout2-sidebar-box-shadow": "color-gray-silver",
    "dt-layout2-sidebar-box-shadow": "color-gray-steelgray",
    "lt-layout2-footer-background-color": "color-const-white",
    "dt-layout2-footer-background-color": "color-gray-coal",
    "lt-layout2-footer-text-color": "color-gray-ebony",
    "dt-layout2-footer-text-color": "color-const-white",
    "lt-layout3-header-background-color": "color-palette-azure",
    "dt-layout3-header-background-color": "color-palette-azure",
    "lt-layout3-header-text-color": "color-const-white",
    "dt-layout3-header-text-color": "color-const-white",
    "lt-layout3-header-box-shadow": "color-gray-lunar",
    "dt-layout3-header-box-shadow": "color-gray-ebony",
    "lt-layout3-footer-background-color": "color-const-white",
    "dt-layout3-footer-background-color": "color-gray-coal",
    "lt-layout3-footer-text-color": "color-gray-ebony",
    "dt-layout3-footer-text-color": "color-const-white",
    "lt-spanel-default-background-color": "color-const-white",
    "dt-spanel-default-background-color": "color-gray-coal",
    "lt-spanel-default-text-color": "color-gray-ebony",
    "dt-spanel-default-text-color": "color-gray-fadedwhite",
    "lt-spanel-tsp-text-color": "color-gray-ebony",
    "dt-spanel-tsp-text-color": "color-gray-fadedwhite",
    "lt-spanel-fancy-background-color": "color-const-white",
    "dt-spanel-fancy-background-color": "color-gray-coal",
    "lt-spanel-fancy-text-color": "color-gray-ebony",
    "dt-spanel-fancy-text-color": "color-gray-fadedwhite",
    "lt-spanel-fancy-box-shadow": "color-gray-lunar",
    "dt-spanel-fancy-box-shadow": "color-gray-ebony",
    "lt-spanel-inv-background-color": "color-gray-coal",
    "dt-spanel-inv-background-color": "color-gray-lunar",
    "lt-spanel-inv-text-color": "color-gray-fadedwhite",
    "dt-spanel-inv-text-color": "color-gray-ebony",
    "lt-accordion-primary-title-background-color": "color-palette-paleblue",
    "dt-accordion-primary-title-background-color": "color-gray-pewter",
    "lt-accordion-primary-title-text-color": "color-gray-ebony",
    "dt-accordion-primary-title-text-color": "color-gray-fadedwhite",
    "lt-accordion-primary-icon-text-color": "color-palette-cerulean",
    "dt-accordion-primary-icon-text-color": "color-palette-paleblue",
    "lt-accordion-primary-background-color": "color-const-white",
    "dt-accordion-primary-background-color": "color-gray-coal",
    "lt-accordion-primary-text-color": "color-gray-coal",
    "dt-accordion-primary-text-color": "color-gray-fadedwhite",
    "lt-accordion-secondary-title-background-color": "color-const-white",
    "dt-accordion-secondary-title-background-color": "color-const-transparent",
    "lt-accordion-secondary-title-text-color": "color-gray-coal",
    "dt-accordion-secondary-title-text-color": "color-gray-fadedwhite",
    "lt-accordion-secondary-icon-text-color": "color-palette-paleblue",
    "dt-accordion-secondary-icon-text-color": "color-palette-paleblue",
    "lt-accordion-secondary-background-color": "color-const-white",
    "dt-accordion-secondary-background-color": "color-gray-pewter",
    "lt-accordion-secondary-text-color": "color-gray-coal",
    "dt-accordion-secondary-text-color": "color-gray-fadedwhite",
    "lt-tab-default-text-color": "color-gray-ebony",
    "dt-tab-default-text-color": "color-gray-fadedwhite",
    "lt-tab-default-active-text-color": "color-gray-ebony",
    "dt-tab-default-active-text-color": "color-gray-fadedwhite",
    "lt-tab-default-active-background-color": "color-const-white",
    "dt-tab-default-active-background-color": "color-gray-coal",
    "lt-tab-default-active-border-top-color": "color-gray-lunar",
    "lt-tab-default-active-border-right-color": "color-gray-lunar",
    "lt-tab-default-active-border-bottom-color": "color-const-white",
    "lt-tab-default-active-border-left-color": "color-gray-lunar",
    "dt-tab-default-active-border-top-color": "color-gray-coal",
    "dt-tab-default-active-border-right-color": "color-gray-coal",
    "dt-tab-default-active-border-bottom-color": "color-gray-coal",
    "dt-tab-default-active-border-left-color": "color-gray-coal",
    "lt-tab-default-hover-text-color": "color-gray-coal",
    "dt-tab-default-hover-text-color": "color-gray-lunar",
    "lt-tab-default-hover-background-color": "color-gray-silver",
    "dt-tab-default-hover-background-color": "color-const-transparent",
    "lt-tab-default-hover-border-top-color": "color-gray-lunar",
    "lt-tab-default-hover-border-right-color": "color-gray-lunar",
    "lt-tab-default-hover-border-bottom-color": "color-gray-lunar",
    "lt-tab-default-hover-border-left-color": "color-gray-lunar",
    "dt-tab-default-hover-border-top-color": "color-gray-coal",
    "dt-tab-default-hover-border-right-color": "color-gray-coal",
    "dt-tab-default-hover-border-bottom-color": "color-gray-coal",
    "dt-tab-default-hover-border-left-color": "color-const-transparent",
    "lt-tab-default-disabled-text-color": "color-gray-coal",
    "dt-tab-default-disabled-text-color": "color-gray-lunar",
    "lt-tab-default-disabled-background-color": "color-gray-lunar",
    "dt-tab-default-disabled-background-color": "color-gray-pewter",
    "lt-tab-default-disabled-border-top-color": "color-gray-lunar",
    "lt-tab-default-disabled-border-right-color": "color-gray-lunar",
    "lt-tab-default-disabled-border-bottom-color": "color-gray-lunar",
    "lt-tab-default-disabled-border-left-color": "color-gray-lunar",
    "dt-tab-default-disabled-border-top-color": "color-gray-pewter",
    "dt-tab-default-disabled-border-right-color": "color-gray-pewter",
    "dt-tab-default-disabled-border-bottom-color": "color-gray-pewter",
    "dt-tab-default-disabled-border-left-color": "color-gray-pewter",
    "lt-tab-primary-text-color": "color-gray-ebony",
    "dt-tab-primary-text-color": "color-gray-fadedwhite",
    "lt-tab-primary-active-text-color": "color-gray-ebony",
    "dt-tab-primary-active-text-color": "color-gray-fadedwhite",
    "lt-tab-primary-active-background-color": "color-const-transparent",
    "dt-tab-primary-active-background-color": "color-const-transparent",
    "lt-tab-primary-active-border-top-color": "color-const-transparent",
    "lt-tab-primary-active-border-right-color": "color-const-transparent",
    "lt-tab-primary-active-border-bottom-color": "color-semantic-info",
    "lt-tab-primary-active-border-left-color": "color-const-transparent",
    "dt-tab-primary-active-border-top-color": "color-const-transparent",
    "dt-tab-primary-active-border-right-color": "color-const-transparent",
    "dt-tab-primary-active-border-bottom-color": "color-semantic-info",
    "dt-tab-primary-active-border-left-color": "color-const-transparent",
    "lt-tab-primary-hover-text-color": "color-gray-coal",
    "dt-tab-primary-hover-text-color": "color-gray-silver",
    "lt-tab-primary-hover-background-color": "color-const-transparent",
    "dt-tab-primary-hover-background-color": "color-semantic-info-hover",
    "lt-tab-primary-hover-border-top-color": "color-const-transparent",
    "lt-tab-primary-hover-border-right-color": "color-const-transparent",
    "lt-tab-primary-hover-border-bottom-color": "color-gray-lunar",
    "lt-tab-primary-hover-border-left-color": "color-const-transparent",
    "dt-tab-primary-hover-border-top-color": "color-const-transparent",
    "dt-tab-primary-hover-border-right-color": "color-const-transparent",
    "dt-tab-primary-hover-border-bottom-color": "color-gray-coal",
    "dt-tab-primary-hover-border-left-color": "color-const-transparent",
    "lt-tab-primary-disabled-text-color": "color-gray-granite",
    "dt-tab-primary-disabled-text-color": "color-gray-granite",
    "lt-tab-primary-disabled-background-color": "color-const-transparent",
    "dt-tab-primary-disabled-background-color": "color-const-transparent",
    "lt-tab-primary-disabled-border-top-color": "color-const-transparent",
    "lt-tab-primary-disabled-border-right-color": "color-const-transparent",
    "lt-tab-primary-disabled-border-bottom-color": "color-gray-lunar",
    "lt-tab-primary-disabled-border-left-color": "color-const-transparent",
    "dt-tab-primary-disabled-border-top-color": "color-const-transparent",
    "dt-tab-primary-disabled-border-right-color": "color-const-transparent",
    "dt-tab-primary-disabled-border-bottom-color": "color-gray-coal",
    "dt-tab-primary-disabled-border-left-color": "color-const-transparent",
    "lt-tab-primary-content-text-color": "color-gray-ebony",
    "dt-tab-primary-content-text-color": "color-gray-fadedwhite",
    "lt-tab-primary-content-background-color": "color-const-transparent",
    "dt-tab-primary-content-background-color": "color-const-transparent",
    "lt-tab-secondary-text-color": "color-gray-ebony",
    "dt-tab-secondary-text-color": "color-gray-fadedwhite",
    "lt-tab-secondary-border-color": "color-const-transparent",
    "dt-tab-secondary-border-color": "color-const-transparent",
    "lt-tab-secondary-active-text-color": "color-const-white",
    "dt-tab-secondary-active-text-color": "color-const-white",
    "lt-tab-secondary-active-background-color": "color-semantic-info",
    "dt-tab-secondary-active-background-color": "color-semantic-info",
    "lt-tab-secondary-active-border-top-color": "color-semantic-info",
    "lt-tab-secondary-active-border-right-color": "color-semantic-info",
    "lt-tab-secondary-active-border-bottom-color": "color-semantic-info",
    "lt-tab-secondary-active-border-left-color": "color-semantic-info",
    "dt-tab-secondary-active-border-top-color": "color-semantic-info",
    "dt-tab-secondary-active-border-right-color": "color-semantic-info",
    "dt-tab-secondary-active-border-bottom-color": "color-semantic-info",
    "dt-tab-secondary-active-border-left-color": "color-semantic-info",
    "lt-tab-secondary-hover-text-color": "color-gray-steelgray",
    "dt-tab-secondary-hover-text-color": "color-gray-lunar",
    "lt-tab-secondary-hover-background-color": "color-const-transparent",
    "dt-tab-secondary-hover-background-color": "color-const-transparent",
    "lt-tab-secondary-hover-border-top-color": "color-const-transparent",
    "lt-tab-secondary-hover-border-right-color": "color-const-transparent",
    "lt-tab-secondary-hover-border-bottom-color": "color-const-transparent",
    "lt-tab-secondary-hover-border-left-color": "color-const-transparent",
    "dt-tab-secondary-hover-border-top-color": "color-const-transparent",
    "dt-tab-secondary-hover-border-right-color": "color-const-transparent",
    "dt-tab-secondary-hover-border-bottom-color": "color-const-transparent",
    "dt-tab-secondary-hover-border-left-color": "color-const-transparent",
    "lt-tab-secondary-disabled-text-color": "color-gray-granite",
    "dt-tab-secondary-disabled-text-color": "color-gray-chromium",
    "lt-tab-secondary-disabled-background-color": "color-gray-lunar",
    "dt-tab-secondary-disabled-background-color": "color-gray-pewter",
    "lt-tab-secondary-disabled-border-top-color": "color-gray-lunar",
    "lt-tab-secondary-disabled-border-right-color": "color-const-transparent",
    "lt-tab-secondary-disabled-border-bottom-color": "color-gray-lunar",
    "lt-tab-secondary-disabled-border-left-color": "color-gray-lunar",
    "dt-tab-secondary-disabled-border-top-color": "color-gray-pewter",
    "dt-tab-secondary-disabled-border-right-color": "color-const-transparent",
    "dt-tab-secondary-disabled-border-bottom-color": "color-gray-coal",
    "dt-tab-secondary-disabled-border-left-color": "color-gray-coal",
    "lt-tab-secondary-content-text-color": "color-gray-ebony",
    "dt-tab-secondary-content-text-color": "color-gray-fadedwhite",
    "lt-tab-secondary-content-background-color": "color-const-transparent",
    "dt-tab-secondary-content-background-color": "color-const-transparent",
    "lt-tab-secondary-content-border-color": "color-const-transparent",
    "dt-tab-secondary-content-border-color": "color-const-transparent",
    "lt-card-default-background-color": "color-const-white",
    "dt-card-default-background-color": "color-gray-coal",
    "lt-card-default-text-color": "color-gray-ebony",
    "dt-card-default-text-color": "color-gray-fadedwhite",
    "lt-card-default-border-color": "color-translucent-black-05",
    "dt-card-default-border-color": "color-const-black",
    "lt-card-default-box-shadow": "color-translucent-black-30",
    "dt-card-default-box-shadow": "color-translucent-black-30",
    "lt-card-default-hover-shadow-color": "color-translucent-black-30",
    "dt-card-default-hover-shadow-color": "color-translucent-white-15",
    "lt-card-default-hover2-border-color": "color-palette-azure",
    "dt-card-default-hover2-border-color": "color-translucent-white-30",
    "lt-card-default-header-background-color": "color-const-transparent",
    "dt-card-default-header-background-color": "color-const-transparent",
    "lt-card-default-header-border-bottom-color": "color-const-transparent",
    "dt-card-default-header-border-bottom-color": "color-const-transparent",
    "lt-card-default-footer-background-color": "color-translucent-black-05",
    "dt-card-default-footer-background-color": "color-translucent-black-15",
    "lt-card-default-footer-border-top-color": "color-const-transparent",
    "dt-card-default-footer-border-top-color": "color-const-transparent",
    "lt-card-default-active-background-color": "color-const-inherit",
    "dt-card-default-active-background-color": "color-gray-coal",
    "lt-card-default-active-text-color": "color-const-inherit",
    "dt-card-default-active-text-color": "color-const-inherit",
    "lt-card-default-active-shadow-color": "color-const-inherit",
    "dt-card-default-active-shadow-color": "color-const-inherit",
    "lt-card-default-selected-text-color": "color-const-inherit",
    "dt-card-default-selected-text-color": "color-const-inherit",
    "lt-card-default-selected-background-color": "color-const-inherit",
    "dt-card-default-selected-background-color": "color-const-inherit",
    "lt-card-default-selected-icon-color": "color-translucent-white-70",
    "dt-card-default-selected-icon-color": "color-translucent-white-70",
    "lt-card-tsp-background-color": "color-const-transparent",
    "dt-card-tsp-background-color": "color-const-transparent",
    "lt-card-tsp-text-color": "color-gray-ebony",
    "dt-card-tsp-text-color": "color-gray-fadedwhite",
    "lt-card-tsp-border-color": "color-translucent-black-05",
    "dt-card-tsp-border-color": "color-const-black",
    "lt-card-tsp-box-shadow": "color-translucent-black-05",
    "dt-card-tsp-box-shadow": "color-translucent-black-05",
    "lt-card-tsp-hover-shadow-color": "color-translucent-black-15",
    "dt-card-tsp-hover-shadow-color": "color-translucent-white-15",
    "lt-card-tsp-hover2-border-color": "color-palette-azure",
    "dt-card-tsp-hover2-border-color": "color-translucent-white-15",
    "lt-card-tsp-header-background-color": "color-const-transparent",
    "dt-card-tsp-header-background-color": "color-const-transparent",
    "lt-card-tsp-header-border-bottom-color": "color-const-transparent",
    "dt-card-tsp-header-border-bottom-color": "color-const-transparent",
    "lt-card-tsp-footer-background-color": "color-translucent-black-05",
    "dt-card-tsp-footer-background-color": "color-translucent-black-15",
    "lt-card-tsp-footer-border-top-color": "color-const-transparent",
    "dt-card-tsp-footer-border-top-color": "color-const-transparent",
    "lt-card-tsp-active-background-color": "color-const-inherit",
    "dt-card-tsp-active-background-color": "color-const-inherit",
    "lt-card-tsp-active-text-color": "color-const-inherit",
    "dt-card-tsp-active-text-color": "color-const-inherit",
    "lt-card-tsp-active-shadow-color": "color-const-inherit",
    "dt-card-tsp-active-shadow-color": "color-const-inherit",
    "lt-card-tsp-selected-text-color": "color-const-inherit",
    "dt-card-tsp-selected-text-color": "color-const-inherit",
    "lt-card-tsp-selected-background-color": "color-const-inherit",
    "dt-card-tsp-selected-background-color": "color-const-inherit",
    "lt-card-tsp-selected-icon-color": "color-translucent-white-70",
    "dt-card-tsp-selected-icon-color": "color-translucent-white-70",
    "lt-card-clickable-background-color": "color-palette-redviolet",
    "dt-card-clickable-background-color": "color-palette-redviolet",
    "lt-card-clickable-text-color": "color-gray-fadedwhite",
    "dt-card-clickable-text-color": "color-gray-fadedwhite",
    "lt-card-clickable-icon-color": "color-translucent-white-15",
    "dt-card-clickable-icon-color": "color-translucent-white-15",
    "lt-card-clickable-border-color": "color-translucent-black-05",
    "dt-card-clickable-border-color": "color-translucent-black-05",
    "lt-card-clickable-box-shadow": "color-translucent-black-30",
    "dt-card-clickable-box-shadow": "color-translucent-black-30",
    "lt-card-clickable-hover-shadow-color": "color-translucent-black-70",
    "dt-card-clickable-hover-shadow-color": "color-translucent-white-30",
    "lt-card-clickable-hover2-border-color": "color-translucent-white-70",
    "dt-card-clickable-hover2-border-color": "color-translucent-white-30",
    "lt-card-clickable-header-background-color": "color-const-transparent",
    "dt-card-clickable-header-background-color": "color-const-transparent",
    "lt-card-clickable-header-border-bottom-color": "color-const-transparent",
    "dt-card-clickable-header-border-bottom-color": "color-const-transparent",
    "lt-card-clickable-footer-background-color": "color-translucent-black-05",
    "dt-card-clickable-footer-background-color": "color-translucent-black-15",
    "lt-card-clickable-footer-border-top-color": "color-const-transparent",
    "dt-card-clickable-footer-border-top-color": "color-const-transparent",
    "lt-card-clickable-active-background-color": "color-palette-redviolet",
    "dt-card-clickable-active-background-color": "color-palette-redviolet",
    "lt-card-clickable-active-text-color": "color-gray-fadedwhite",
    "dt-card-clickable-active-text-color": "color-const-inherit",
    "lt-card-clickable-active-shadow-color": "color-const-inherit",
    "dt-card-clickable-active-shadow-color": "color-const-inherit",
    "lt-card-clickable-selected-text-color": "color-const-inherit",
    "dt-card-clickable-selected-text-color": "color-const-inherit",
    "lt-card-clickable-selected-background-color": "color-const-inherit",
    "dt-card-clickable-selected-background-color": "color-const-inherit",
    "lt-card-clickable-selected-icon-color": "color-translucent-white-70",
    "dt-card-clickable-selected-icon-color": "color-translucent-white-70",
    "lt-chart-background-color": "color-const-white",
    "dt-chart-background-color": "color-gray-coal",
    "lt-chart-text-color": "color-const-inherit",
    "dt-chart-text-color": "color-const-inherit",
    "lt-chart-header-background-color": "color-const-inherit",
    "dt-chart-header-background-color": "color-const-inherit",
    "lt-chart-header-text-color": "color-const-inherit",
    "dt-chart-header-text-color": "color-const-inherit",
    "lt-chart-header-border-bottom-color": "color-const-transparent",
    "dt-chart-header-border-bottom-color": "color-const-transparent",
    "lt-form-horizontal-background-color": "color-const-transparent",
    "dt-form-horizontal-background-color": "color-gray-coal",
    "lt-form-horizontal-text-color": "color-const-inherit",
    "dt-form-horizontal-text-color": "color-const-inherit",
    "lt-form-horizontal-form-header-background-color": "color-const-inherit",
    "dt-form-horizontal-form-header-background-color": "color-const-inherit",
    "lt-form-horizontal-form-header-text-color": "color-const-inherit",
    "dt-form-horizontal-form-header-text-color": "color-const-inherit",
    "lt-form-horizontal-form-header-border-bottom-color": "color-const-transparent",
    "dt-form-horizontal-form-header-border-bottom-color": "color-const-transparent",
    "lt-form-vertical-background-color": "color-const-transparent",
    "dt-form-vertical-background-color": "color-gray-coal",
    "lt-form-vertical-text-color": "color-const-inherit",
    "dt-form-vertical-text-color": "color-const-inherit",
    "lt-form-vertical-form-header-background-color": "color-const-inherit",
    "dt-form-vertical-form-header-background-color": "color-const-inherit",
    "lt-form-vertical-form-header-text-color": "color-const-inherit",
    "dt-form-vertical-form-header-text-color": "color-const-inherit",
    "lt-form-vertical-form-header-border-bottom-color": "color-const-transparent",
    "dt-form-vertical-form-header-border-bottom-color": "color-const-transparent",
    "lt-list-default-header-background-color": "color-const-inherit",
    "dt-list-default-header-background-color": "color-const-inherit",
    "lt-list-default-header-text-color": "color-const-inherit",
    "dt-list-default-header-text-color": "color-const-inherit",
    "lt-list-default-header-border-bottom-color": "color-const-transparent",
    "dt-list-default-header-border-bottom-color": "color-const-transparent",
    "lt-list-default-list-group-border-color": "color-translucent-black-05",
    "dt-list-default-list-group-border-color": "color-translucent-black-70",
    "lt-list-default-list-group-item-background-color": "color-const-white",
    "dt-list-default-list-group-item-background-color": "color-gray-pewter",
    "lt-list-default-list-group-item-text-color": "color-const-inherit",
    "dt-list-default-list-group-item-text-color": "color-const-inherit",
    "lt-list-default-list-group-item-active-background-color": "color-const-inherit",
    "dt-list-default-list-group-item-active-background-color": "color-const-inherit",
    "lt-list-default-list-group-item-active-text-color": "color-const-inherit",
    "dt-list-default-list-group-item-active-text-color": "color-const-inherit",
    "lt-list-default-list-group-item-active-shadow-color": "color-translucent-black-15",
    "dt-list-default-list-group-item-active-shadow-color": "color-translucent-black-70",
    "lt-list-default-list-group-item-selected-text-color": "color-gray-ebony",
    "dt-list-default-list-group-item-selected-text-color": "color-gray-ebony",
    "lt-list-default-list-group-item-selected-background-color": "color-palette-apricot",
    "dt-list-default-list-group-item-selected-background-color": "color-palette-apricot",
    "lt-list-default-list-group-item-selected-icon-color": "color-const-white",
    "dt-list-default-list-group-item-selected-icon-color": "color-const-white",
    "lt-list-default-hover-text-color": "color-const-inherit",
    "dt-list-default-hover-text-color": "color-const-inherit",
    "lt-list-default-hover-shadow-color": "color-translucent-black-15",
    "dt-list-default-hover-shadow-color": "color-translucent-black-70",
    "lt-list-default-hover-border-color": "color-palette-azure",
    "dt-list-default-hover-border-color": "color-palette-azure",
    "lt-list-tsp-header-background-color": "color-const-inherit",
    "dt-list-tsp-header-background-color": "color-const-inherit",
    "lt-list-tsp-header-text-color": "color-const-inherit",
    "dt-list-tsp-header-text-color": "color-const-inherit",
    "lt-list-tsp-header-border-bottom-color": "color-const-transparent",
    "dt-list-tsp-header-border-bottom-color": "color-const-transparent",
    "lt-list-tsp-list-group-border-color": "color-translucent-black-05",
    "dt-list-tsp-list-group-border-color": "color-translucent-white-15",
    "lt-list-tsp-list-group-item-background-color": "color-const-transparent",
    "dt-list-tsp-list-group-item-background-color": "color-const-transparent",
    "lt-list-tsp-list-group-item-text-color": "color-const-inherit",
    "dt-list-tsp-list-group-item-text-color": "color-const-inherit",
    "lt-list-tsp-list-group-item-active-background-color": "color-const-inherit",
    "dt-list-tsp-list-group-item-active-background-color": "color-const-inherit",
    "lt-list-tsp-list-group-item-active-text-color": "color-const-inherit",
    "dt-list-tsp-list-group-item-active-text-color": "color-const-inherit",
    "lt-list-tsp-list-group-item-active-shadow-color": "color-translucent-black-15",
    "dt-list-tsp-list-group-item-active-shadow-color": "color-translucent-black-70",
    "lt-list-tsp-list-group-item-selected-text-color": "color-const-white",
    "dt-list-tsp-list-group-item-selected-text-color": "color-const-white",
    "lt-list-tsp-list-group-item-selected-background-color": "color-palette-redviolet",
    "dt-list-tsp-list-group-item-selected-background-color": "color-palette-redviolet",
    "lt-list-tsp-list-group-item-selected-icon-color": "color-translucent-white-45",
    "dt-list-tsp-list-group-item-selected-icon-color": "color-translucent-white-45",
    "lt-list-tsp-hover-text-color": "color-const-inherit",
    "dt-list-tsp-hover-text-color": "color-const-inherit",
    "lt-list-tsp-hover-shadow-color": "color-translucent-black-15",
    "dt-list-tsp-hover-shadow-color": "color-translucent-black-30",
    "lt-list-tsp-hover-border-color": "color-palette-azure",
    "dt-list-tsp-hover-border-color": "color-palette-azure",
    "lt-list-clickable-box-background-color": "color-const-inherit",
    "dt-list-clickable-box-background-color": "color-const-inherit",
    "lt-list-clickable-header-background-color": "color-const-inherit",
    "dt-list-clickable-header-background-color": "color-const-inherit",
    "lt-list-clickable-header-text-color": "color-const-inherit",
    "dt-list-clickable-header-text-color": "color-const-inherit",
    "lt-list-clickable-header-border-bottom-color": "color-const-transparent",
    "dt-list-clickable-header-border-bottom-color": "color-const-transparent",
    "lt-list-clickable-list-group-border-color": "color-translucent-black-05",
    "dt-list-clickable-list-group-border-color": "color-translucent-black-70",
    "lt-list-clickable-list-group-item-background-color": "color-const-white",
    "dt-list-clickable-list-group-item-background-color": "color-gray-coal",
    "lt-list-clickable-list-group-item-text-color": "color-const-inherit",
    "dt-list-clickable-list-group-item-text-color": "color-const-inherit",
    "lt-list-clickable-list-group-item-icon-color": "color-translucent-black-15",
    "dt-list-clickable-list-group-item-icon-color": "color-translucent-white-15",
    "lt-list-clickable-list-group-item-active-background-color": "color-const-inherit",
    "dt-list-clickable-list-group-item-active-background-color": "color-const-inherit",
    "lt-list-clickable-list-group-item-active-text-color": "color-const-inherit",
    "dt-list-clickable-list-group-item-active-text-color": "color-const-inherit",
    "lt-list-clickable-list-group-item-active-shadow-color": "color-translucent-black-15",
    "dt-list-clickable-list-group-item-active-shadow-color": "color-translucent-white-15",
    "lt-list-clickable-list-group-item-selected-text-color": "color-gray-fadedwhite",
    "dt-list-clickable-list-group-item-selected-text-color": "color-gray-fadedwhite",
    "lt-list-clickable-list-group-item-selected-background-color": "color-palette-azure",
    "dt-list-clickable-list-group-item-selected-background-color": "color-palette-azure",
    "lt-list-clickable-list-group-item-selected-icon-color": "color-const-white",
    "dt-list-clickable-list-group-item-selected-icon-color": "color-translucent-black-30",
    "lt-list-clickable-hover-text-color": "color-const-inherit",
    "dt-list-clickable-hover-text-color": "color-const-inherit",
    "lt-list-clickable-hover-shadow-color": "color-translucent-black-15",
    "dt-list-clickable-hover-shadow-color": "color-translucent-black-70",
    "lt-list-clickable-hover-border-color": "color-palette-azure",
    "dt-list-clickable-hover-border-color": "color-palette-azure",
    "lt-navbar-default-background-color": "color-const-white",
    "dt-navbar-default-background-color": "color-gray-silver",
    "lt-navbar-default-text-color": "color-const-inherit",
    "dt-navbar-default-text-color": "color-const-inherit",
    "lt-navbar-default-border-color": "color-translucent-black-15",
    "dt-navbar-default-border-color": "color-translucent-black-15",
    "lt-navbar-primary-background-color": "color-palette-azure",
    "dt-navbar-primary-background-color": "color-palette-azure",
    "lt-navbar-primary-text-color": "color-const-white",
    "dt-navbar-primary-text-color": "color-const-white",
    "lt-navbar-primary-border-color": "color-translucent-white-15",
    "dt-navbar-primary-border-color": "color-translucent-white-15",
    "lt-navbar-tsp-background-color": "color-const-transparent",
    "dt-navbar-tsp-background-color": "color-const-transparent",
    "lt-navbar-tsp-text-color": "color-const-inherit",
    "dt-navbar-tsp-text-color": "color-const-inherit",
    "lt-navbar-tsp-border-color": "color-const-transparent",
    "dt-navbar-tsp-border-color": "color-const-transparent",
    "lt-breadcrumb-background-color": "color-const-white",
    "dt-breadcrumb-background-color": "color-gray-coal",
    "lt-breadcrumb-border-color": "color-translucent-black-15",
    "dt-breadcrumb-border-color": "color-translucent-black-15",
    "lt-breadcrumb-item-text-color": "color-gray-coal",
    "dt-breadcrumb-item-text-color": "color-gray-fadedwhite",
    "lt-breadcrumb-item-hover-text-color": "color-gray-pewter",
    "dt-breadcrumb-item-hover-text-color": "color-gray-lunar",
    "lt-breadcrumb-item-active-text-color": "color-gray-ebony",
    "dt-breadcrumb-item-active-text-color": "color-gray-fadedwhite",
    "lt-breadcrumb-item-symbol-text-color": "color-gray-steelgray",
    "dt-breadcrumb-item-symbol-text-color": "color-gray-chromium",
    "lt-breadcrumb-tsp-background-color": "color-const-transparent",
    "dt-breadcrumb-tsp-background-color": "color-const-transparent",
    "lt-breadcrumb-tsp-border-color": "color-const-transparent",
    "dt-breadcrumb-tsp-border-color": "color-const-transparent",
    "lt-breadcrumb-tsp-item-text-color": "color-gray-coal",
    "dt-breadcrumb-tsp-item-text-color": "color-gray-fadedwhite",
    "lt-breadcrumb-tsp-item-hover-text-color": "color-gray-pewter",
    "dt-breadcrumb-tsp-item-hover-text-color": "color-gray-lunar",
    "lt-breadcrumb-tsp-item-active-text-color": "color-gray-ebony",
    "dt-breadcrumb-tsp-item-active-text-color": "color-gray-fadedwhite",
    "lt-breadcrumb-tsp-item-symbol-text-color": "color-gray-steelgray",
    "dt-breadcrumb-tsp-item-symbol-text-color": "color-gray-chromium",
    "lt-xle-menu-border-color": "color-translucent-black-05",
    "dt-xle-menu-border-color": "color-translucent-black-15",
    "lt-xle-menu-item-text-color": "color-gray-ebony",
    "dt-xle-menu-item-text-color": "color-gray-fadedwhite",
    "lt-xle-menu-item-background-color": "color-const-white",
    "dt-xle-menu-item-background-color": "color-gray-coal",
    "lt-xle-menu-item-hover-text-color": "color-gray-coal",
    "dt-xle-menu-item-hover-text-color": "color-gray-silver",
    "lt-xle-menu-item-hover-background-color": "color-translucent-black-05",
    "dt-xle-menu-item-hover-background-color": "color-translucent-white-05",
    "lt-xle-menu-item-active-text-color": "color-const-white",
    "dt-xle-menu-item-active-text-color": "color-const-white",
    "lt-xle-menu-item-active-background-color": "color-palette-redviolet",
    "dt-xle-menu-item-active-background-color": "color-palette-redviolet",
    "lt-child-menu-background-color": "color-const-white",
    "dt-child-menu-background-color": "color-gray-coal",
    "lt-child-menu-xle-menu-item-text-color": "color-gray-ebony",
    "dt-child-menu-xle-menu-item-text-color": "color-gray-fadedwhite",
    "lt-child-menu-xle-menu-item-background-color": "color-const-white",
    "dt-child-menu-xle-menu-item-background-color": "color-gray-coal",
    "lt-child-menu-xle-menu-item-border-left-color": "color-translucent-black-15",
    "dt-child-menu-xle-menu-item-border-left-color": "color-translucent-white-15",
    "lt-child-menu-xle-menu-item-hover-text-color": "color-gray-coal",
    "dt-child-menu-xle-menu-item-hover-text-color": "color-gray-silver",
    "lt-child-menu-xle-menu-item-hover-background-color": "color-translucent-black-05",
    "dt-child-menu-xle-menu-item-hover-background-color": "color-translucent-white-05",
    "lt-child-menu-xle-menu-item-hover-border-left-color": "color-translucent-black-30",
    "dt-child-menu-xle-menu-item-hover-border-left-color": "color-translucent-white-30",
    "lt-child-menu-xle-menu-item-active-text-color": "color-gray-ebony",
    "dt-child-menu-xle-menu-item-active-text-color": "color-gray-fadedwhite",
    "lt-child-menu-xle-menu-item-active-background-color": "color-gray-lunar",
    "dt-child-menu-xle-menu-item-active-background-color": "color-gray-steelgray",
    "lt-child-menu-xle-menu-item-active-border-left-color": "color-palette-redviolet",
    "dt-child-menu-xle-menu-item-active-border-left-color": "color-palette-redviolet",
    "lt-progress-steps-horizontal-text-color": "color-gray-fadedwhite",
    "dt-progress-steps-horizontal-text-color": "color-gray-fadedwhite",
    "lt-progress-steps-horizontal-line-color": "color-translucent-black-30",
    "dt-progress-steps-horizontal-line-color": "color-translucent-white-30",
    "lt-progress-steps-horizontal-bullet-color": "color-translucent-black-30",
    "dt-progress-steps-horizontal-bullet-color": "color-translucent-white-30",
    "lt-progress-steps-horizontal-active-text-color": "color-palette-cerulean",
    "dt-progress-steps-horizontal-active-text-color": "color-palette-cerulean",
    "lt-progress-steps-horizontal-active-line-color": "color-palette-azure",
    "dt-progress-steps-horizontal-active-line-color": "color-palette-azure",
    "lt-progress-steps-horizontal-active-bullet-color": "color-palette-azure",
    "dt-progress-steps-horizontal-active-bullet-color": "color-palette-azure",
    "lt-progress-steps-horizontal-visited-text-color": "color-palette-redorange",
    "dt-progress-steps-horizontal-visited-text-color": "color-palette-redorange",
    "lt-progress-steps-horizontal-visited-line-color": "color-palette-orange",
    "dt-progress-steps-horizontal-visited-line-color": "color-palette-orange",
    "lt-progress-steps-horizontal-visited-bullet-color": "color-palette-orange",
    "dt-progress-steps-horizontal-visited-bullet-color": "color-palette-orange",
    "lt-progress-steps-vertical-text-color": "color-gray-fadedwhite",
    "dt-progress-steps-vertical-text-color": "color-gray-fadedwhite",
    "lt-progress-steps-vertical-line-color": "color-translucent-black-30",
    "dt-progress-steps-vertical-line-color": "color-translucent-white-30",
    "lt-progress-steps-vertical-bullet-color": "color-translucent-black-30",
    "dt-progress-steps-vertical-bullet-color": "color-translucent-white-30",
    "lt-progress-steps-vertical-active-text-color": "color-palette-cerulean",
    "dt-progress-steps-vertical-active-text-color": "color-palette-cerulean",
    "lt-progress-steps-vertical-active-line-color": "color-palette-azure",
    "dt-progress-steps-vertical-active-line-color": "color-palette-azure",
    "lt-progress-steps-vertical-active-bullet-color": "color-palette-azure",
    "dt-progress-steps-vertical-active-bullet-color": "color-palette-azure",
    "lt-progress-steps-vertical-visited-text-color": "color-palette-redorange",
    "dt-progress-steps-vertical-visited-text-color": "color-palette-redorange",
    "lt-progress-steps-vertical-visited-line-color": "color-palette-orange",
    "dt-progress-steps-vertical-visited-line-color": "color-palette-orange",
    "lt-progress-steps-vertical-visited-bullet-color": "color-palette-orange",
    "dt-progress-steps-vertical-visited-bullet-color": "color-palette-orange",
    "lt-htl-container-header-background-color": "color-const-inherit",
    "dt-htl-container-header-background-color": "color-const-inherit",
    "lt-htl-container-header-text-color": "color-const-inherit",
    "dt-htl-container-header-text-color": "color-const-inherit",
    "lt-htl-container-header-border-bottom-color": "color-const-transparent",
    "dt-htl-container-header-border-bottom-color": "color-const-transparent",
    "lt-htl-tools-background-color": "color-const-white",
    "dt-htl-tools-background-color": "color-const-transparent",
    "lt-htl-tools-text-color": "color-gray-ebony",
    "dt-htl-tools-text-color": "color-gray-fadedwhite",
    "lt-htl-tools-border-color": "color-const-transparent",
    "dt-htl-tools-border-color": "color-const-transparent",
    "lt-htl-box-background-color": "color-const-inherit",
    "dt-htl-box-background-color": "color-const-inherit",
    "lt-htl-box-text-color": "color-gray-ebony",
    "dt-htl-box-text-color": "color-gray-fadedwhite",
    "lt-htl-box-border-color": "color-translucent-black-05",
    "dt-htl-box-border-color": "color-translucent-black-30",
    "lt-top-title-background-color": "color-translucent-black-70",
    "dt-top-title-background-color": "color-translucent-white-70",
    "lt-top-title-text-color": "color-const-white",
    "dt-top-title-text-color": "color-const-black",
    "lt-htl-icon-color": "color-palette-redorange",
    "dt-htl-icon-color": "color-palette-redorange",
    "lt-htl-link-color": "color-gray-ebony",
    "dt-htl-link-color": "color-gray-fadedwhite",
    "lt-ul-type-0-background-color": "color-const-white",
    "dt-ul-type-0-background-color": "color-gray-coal",
    "lt-ul-type-0-htl-head-li-text-color": "color-gray-pewter",
    "dt-ul-type-0-htl-head-li-text-color": "color-gray-silver",
    "lt-ul-type-0-htl-body-li-text-color": "color-gray-coal",
    "dt-ul-type-0-htl-body-li-text-color": "color-gray-silver",
    "lt-type-0-htl-body-box-shadow": "color-gray-silver",
    "dt-type-0-htl-body-box-shadow": "color-gray-granite",
    "lt-ul-type-1-background-color": "color-gray-fadedwhite",
    "dt-ul-type-1-background-color": "color-gray-pewter",
    "lt-ul-type-1-htl-head-li-text-color": "color-gray-ebony",
    "dt-ul-type-1-htl-head-li-text-color": "color-gray-fadedwhite",
    "lt-ul-type-1-htl-body-li-text-color": "color-gray-ebony",
    "dt-ul-type-1-htl-body-li-text-color": "color-gray-fadedwhite",
    "lt-type-1-htl-body-box-shadow": "color-gray-lunar",
    "dt-type-1-htl-body-box-shadow": "color-gray-coal",
    "lt-ul-type-2-background-color": "color-gray-lunar",
    "dt-ul-type-2-background-color": "color-gray-coal",
    "lt-ul-type-2-htl-head-li-text-color": "color-gray-ebony",
    "dt-ul-type-2-htl-head-li-text-color": "color-gray-fadedwhite",
    "lt-ul-type-2-htl-body-li-text-color": "color-gray-ebony",
    "dt-ul-type-2-htl-body-li-text-color": "color-gray-fadedwhite",
    "lt-type-2-htl-body-box-shadow": "color-gray-silver",
    "dt-type-2-htl-body-box-shadow": "color-gray-pewter",
    "lt-ul-type-3-background-color": "color-gray-chromium",
    "dt-ul-type-3-background-color": "color-gray-steelgray",
    "lt-ul-type-3-htl-head-li-text-color": "color-gray-ebony",
    "dt-ul-type-3-htl-head-li-text-color": "color-gray-fadedwhite",
    "lt-ul-type-3-htl-body-li-text-color": "color-gray-ebony",
    "dt-ul-type-3-htl-body-li-text-color": "color-gray-fadedwhite",
    "lt-type-3-htl-body-box-shadow": "color-gray-chromium",
    "dt-type-3-htl-body-box-shadow": "color-gray-pewter",
    "lt-ul-type-4-background-color": "color-gray-smoke",
    "dt-ul-type-4-background-color": "color-gray-granite",
    "lt-ul-type-4-htl-head-li-text-color": "color-gray-ebony",
    "dt-ul-type-4-htl-head-li-text-color": "color-gray-fadedwhite",
    "lt-ul-type-4-htl-body-li-text-color": "color-gray-ebony",
    "dt-ul-type-4-htl-body-li-text-color": "color-gray-fadedwhite",
    "lt-type-4-htl-body-box-shadow": "color-gray-chromium",
    "dt-type-4-htl-body-box-shadow": "color-gray-ebony",
    "lt-table-header-background-color": "color-const-inherit",
    "dt-table-header-background-color": "color-const-inherit",
    "lt-table-header-text-color": "color-const-inherit",
    "dt-table-header-text-color": "color-const-inherit",
    "lt-table-header-border-bottom-color": "color-const-transparent",
    "dt-table-header-border-bottom-color": "color-const-transparent",
    "lt-table-th-text-color": "color-const-black",
    "dt-table-th-text-color": "color-const-black",
    "lt-table-th-background-color": "color-semantic-primary-hover",
    "dt-table-th-background-color": "color-semantic-primary-hover",
    "lt-table-th-border-color": "color-const-transparent",
    "dt-table-th-border-color": "color-const-transparent",
    "lt-table-th-icon-color": "color-const-white",
    "dt-table-th-icon-color": "color-const-white",
    "lt-table-th-disabled-icon-color": "color-translucent-white-45",
    "dt-table-th-disabled-icon-color": "color-translucent-white-45",
    "lt-table-th-hover-text-color": "color-const-white",
    "dt-table-th-hover-text-color": "color-const-white",
    "lt-table-th-hover-background-color": "color-semantic-primary-active",
    "dt-table-th-hover-background-color": "color-palette-redviolet",
    "lt-table-th-hover-icon-color": "color-const-white",
    "dt-table-th-hover-icon-color": "color-const-white",
    "lt-table-tr-background-color": "color-const-white",
    "dt-table-tr-background-color": "color-gray-ebony",
    "lt-table-tr-text-color": "color-gray-ebony",
    "dt-table-tr-text-color": "color-gray-silver",
    "lt-table-tr-outline-color": "color-translucent-black-05",
    "dt-table-tr-outline-color": "color-translucent-black-45",
    "lt-table-tr-highlight-text-color": "color-gray-coal",
    "dt-table-tr-highlight-text-color": "color-gray-fadedwhite",
    "lt-table-tr-highlight-background-color": "color-gray-silver",
    "dt-table-tr-highlight-background-color": "color-translucent-black-45",
    "lt-table-tr-hover-background-color": "color-gray-fadedwhite",
    "dt-table-tr-hover-background-color": "color-gray-coal",
    "lt-table-tr-hover-text-color": "color-gray-coal",
    "dt-table-tr-hover-text-color": "color-gray-fadedwhite",
    "lt-table-td-border-color": "color-translucent-black-05",
    "dt-table-td-border-color": "color-translucent-white-15",
    "lt-table-checkbox-border-color": "color-translucent-black-15",
    "dt-table-checkbox-border-color": "color-translucent-black-15",
    "lt-table-checkbox-border-hover-color": "color-gray-chromium",
    "dt-table-checkbox-border-hover-color": "color-gray-chromium",
    "lt-table-checkbox-background-color": "color-const-white",
    "dt-table-checkbox-background-color": "color-translucent-white-15",
    "lt-table-input-text-color": "color-gray-ebony",
    "dt-table-input-text-color": "color-gray-fadedwhite",
    "lt-table-input-background-color": "color-const-white",
    "dt-table-input-background-color": "color-gray-ebony",
    "lt-table-input-border-color": "color-translucent-black-15",
    "dt-table-input-border-color": "color-translucent-black-15",
    "lt-table-input-hover-border-color": "color-palette-plum",
    "dt-table-input-hover-border-color": "color-palette-plum",
    "lt-table-input-focus-border-color": "color-palette-plum",
    "dt-table-input-focus-border-color": "color-palette-plum",
    "lt-form-control-label-text-color": "color-gray-granite",
    "dt-form-control-label-text-color": "color-gray-smoke",
    "lt-form-group-required-text-color": "color-semantic-danger",
    "dt-form-group-required-text-color": "color-semantic-danger",
    "lt-form-control-text-color": "color-gray-ebony",
    "dt-form-control-text-color": "color-gray-fadedwhite",
    "lt-form-control-background-color": "color-const-white",
    "dt-form-control-background-color": "color-gray-coal",
    "lt-form-control-border-color": "color-translucent-black-15",
    "dt-form-control-border-color": "color-translucent-white-15",
    "lt-form-control-placeholder-text-color": "color-gray-smoke",
    "dt-form-control-placeholder-text-color": "color-gray-granite",
    "lt-form-control-focus-border-color": "color-palette-azure",
    "dt-form-control-focus-border-color": "color-gray-granite",
    "lt-form-control-focus-background-color": "color-const-white",
    "dt-form-control-focus-background-color": "color-gray-ebony",
    "lt-form-control-focus-text-color": "color-gray-ebony",
    "dt-form-control-focus-text-color": "color-gray-fadedwhite",
    "lt-linevar-form-control-background-color": "color-const-transparent",
    "dt-linevar-form-control-background-color": "color-const-transparent",
    "lt-disabled-form-control-text-color": "color-gray-pewter",
    "dt-disabled-form-control-text-color": "color-gray-coal",
    "lt-disabled-form-control-background-color": "color-translucent-black-05",
    "dt-disabled-form-control-background-color": "color-const-transparent",
    "lt-disabled-form-control-border-color": "color-translucent-black-05",
    "dt-disabled-form-control-border-color": "color-translucent-black-15",
    "lt-ronly-form-control-background-color": "color-const-white",
    "dt-ronly-form-control-background-color": "color-const-transparent",
    "lt-ronly-form-control-text-color": "color-gray-pewter",
    "dt-ronly-form-control-text-color": "color-gray-fadedwhite",
    "lt-datepicker-background-color": "color-const-white",
    "dt-datepicker-background-color": "color-gray-pewter",
    "lt-datepicker-border-color": "color-gray-chromium",
    "dt-datepicker-border-color": "color-gray-ebony",
    "lt-datepicker-shadow-color": "color-gray-lunar",
    "dt-datepicker-shadow-color": "color-gray-ebony",
    "lt-datepicker-day-background-color": "color-const-inherit",
    "dt-datepicker-day-background-color": "color-const-inherit",
    "lt-datepicker-day-border-color": "color-const-transparent",
    "dt-datepicker-day-border-color": "color-const-transparent",
    "lt-datepicker-day-text-color": "color-gray-coal",
    "dt-datepicker-day-text-color": "color-gray-fadedwhite",
    "lt-datepicker-day-hover-background-color": "color-gray-lunar",
    "dt-datepicker-day-hover-background-color": "color-gray-steelgray",
    "lt-datepicker-day-hover-border-color": "color-gray-lunar",
    "dt-datepicker-day-hover-border-color": "color-gray-steelgray",
    "lt-datepicker-disabled-day-text-color": "color-gray-chromium",
    "dt-datepicker-disabled-day-text-color": "color-const-transparent",
    "lt-datepicker-disabled-day-background-color": "color-const-transparent",
    "dt-datepicker-disabled-day-background-color": "color-gray-chromium",
    "lt-datepicker-disabled-day-border-color": "color-semantic-primary",
    "dt-datepicker-disabled-day-border-color": "color-const-transparent",
    "lt-datepicker-selected-day-background-color": "color-const-white",
    "dt-datepicker-selected-day-background-color": "color-const-transparent",
    "lt-datepicker-selected-day-text-color": "color-gray-fadedwhite",
    "dt-datepicker-selected-day-text-color": "color-gray-fadedwhite",
    "lt-datepicker-selected-day-border-color": "color-semantic-primary",
    "dt-datepicker-selected-day-border-color": "color-const-transparent",
    "lt-datepicker-today-border-color": "color-gray-smoke",
    "dt-datepicker-today-border-color": "color-semantic-primary",
    "lt-datepicker-today-hover-border-color": "color-gray-lunar",
    "dt-datepicker-today-hover-border-color": "color-gray-steelgray",
    "lt-datepicker-today-hover-background-color": "color-gray-lunar",
    "dt-datepicker-today-hover-background-color": "color-gray-steelgray",
    "lt-datepicker-today-hover-text-color": "color-gray-coal",
    "dt-datepicker-today-hover-text-color": "color-gray-silver",
    "lt-select-container-background-color": "color-const-white",
    "dt-select-container-background-color": "color-gray-pewter",
    "lt-select-container-shadow-color": "color-translucent-black-15",
    "dt-select-container-shadow-color": "color-gray-ebony",
    "lt-select-option-text-color": "color-gray-ebony",
    "dt-select-option-text-color": "color-gray-fadedwhite",
    "lt-select-option-hover-background-color": "color-gray-ebony",
    "dt-select-option-hover-background-color": "color-gray-steelgray",
    "lt-select-option-hover-text-color": "color-const-white",
    "dt-select-option-hover-text-color": "color-gray-silver",
    "lt-select-option-active-background-color": "color-semantic-primary",
    "dt-select-option-active-background-color": "color-semantic-primary",
    "lt-select-option-active-text-color": "color-const-white",
    "dt-select-option-active-text-color": "color-const-white",
    "lt-select-option-disabled-text-color": "color-gray-steelgray",
    "dt-select-option-disabled-text-color": "color-gray-chromium",
    "lt-chip-default-background-color": "color-gray-silver",
    "dt-chip-default-background-color": "color-gray-pewter",
    "lt-chip-default-text-color": "color-gray-ebony",
    "dt-chip-default-text-color": "color-gray-fadedwhite",
    "lt-chip-default-icon-color": "color-gray-ebony",
    "dt-chip-default-icon-color": "color-gray-fadedwhite",
    "lt-chip-default-icon-background-color": "color-const-black",
    "dt-chip-default-icon-background-color": "color-gray-granite",
    "lt-custom-control-label-text-color": "color-gray-ebony",
    "dt-custom-control-label-text-color": "color-gray-fadedwhite",
    "lt-custom-control-label-before-background-color": "color-const-white",
    "dt-custom-control-label-before-background-color": "color-gray-smoke",
    "lt-custom-control-label-before-border-color": "color-gray-chromium",
    "dt-custom-control-label-before-border-color": "color-gray-ebony",
    "lt-custom-control-input-checked-border-color": "color-palette-azure",
    "dt-custom-control-input-checked-border-color": "color-palette-azure",
    "lt-custom-control-input-checked-background-color": "color-palette-azure",
    "dt-custom-control-input-checked-background-color": "color-palette-azure",
    "lt-custom-control-input-disabled-text-color": "color-gray-steelgray",
    "dt-custom-control-input-disabled-text-color": "color-gray-smoke",
    "lt-custom-control-disabled-label-before-background-color": "color-gray-smoke",
    "dt-custom-control-disabled-label-before-background-color": "color-gray-steelgray",
    "lt-custom-checkbox-disabled-checked-border-color": "color-translucent-black-30",
    "dt-custom-checkbox-disabled-checked-border-color": "color-gray-steelgray",
    "lt-custom-checkbox-disabled-checked-background-color": "color-gray-smoke",
    "dt-custom-checkbox-disabled-checked-background-color": "color-gray-steelgray",
    "lt-badge-default-background-color": "color-gray-lunar",
    "dt-badge-default-background-color": "color-gray-coal",
    "lt-badge-default-text-color": "color-gray-ebony",
    "dt-badge-default-text-color": "color-gray-fadedwhite",
    "lt-badge-light-background-color": "color-gray-fadedwhite",
    "dt-badge-light-background-color": "color-gray-pewter",
    "lt-badge-light-text-color": "color-gray-ebony",
    "dt-badge-light-text-color": "color-gray-fadedwhite",
    "lt-badge-dark-background-color": "color-gray-coal",
    "dt-badge-dark-background-color": "color-gray-chromium",
    "lt-badge-dark-text-color": "color-gray-silver",
    "dt-badge-dark-text-color": "color-gray-ebony",
    "lt-badge-info-background-color": "color-semantic-info",
    "dt-badge-info-background-color": "color-semantic-info",
    "lt-badge-info-text-color": "color-gray-ebony",
    "dt-badge-info-text-color": "color-gray-ebony",
    "lt-badge-success-background-color": "color-semantic-success",
    "dt-badge-success-background-color": "color-semantic-success",
    "lt-badge-success-text-color": "color-gray-fadedwhite",
    "dt-badge-success-text-color": "color-gray-fadedwhite",
    "lt-badge-warning-background-color": "color-semantic-warning",
    "dt-badge-warning-background-color": "color-semantic-warning",
    "lt-badge-warning-text-color": "color-gray-ebony",
    "dt-badge-warning-text-color": "color-gray-ebony",
    "lt-badge-danger-background-color": "color-semantic-danger ",
    "dt-badge-danger-background-color": "color-semantic-danger",
    "lt-badge-danger-text-color": "color-gray-fadedwhite",
    "dt-badge-danger-text-color": "color-gray-fadedwhite",
    "lt-text-muted-text-color": "color-gray-smoke",
    "dt-text-muted-text-color": "color-gray-granite",
    "lt-text-muted-hover-focus-text-color": "color-gray-steelgray",
    "dt-text-muted-hover-focus-text-color": "color-gray-steelgray",
    "lt-text-info-text-color": "color-semantic-info",
    "dt-text-info-text-color": "color-semantic-info",
    "lt-text-info-hover-focus-text-color": "color-semantic-info-hover",
    "dt-text-info-hover-focus-text-color": "color-semantic-info-hover",
    "lt-text-success-text-color": "color-semantic-success",
    "dt-text-success-text-color": "color-semantic-success",
    "lt-text-success-hover-focus-text-color": "color-semantic-success-hover",
    "dt-text-success-hover-focus-text-color": "color-semantic-success-hover",
    "lt-text-warning-text-color": "color-semantic-warning",
    "dt-text-warning-text-color": "color-semantic-warning",
    "lt-text-warning-hover-focus-text-color": "color-semantic-warning-hover",
    "dt-text-warning-hover-focus-text-color": "color-semantic-warning-hover",
    "lt-text-danger-text-color": "color-semantic-danger",
    "dt-text-danger-text-color": "color-semantic-danger",
    "lt-text-danger-hover-focus-text-color": "color-semantic-danger-hover",
    "dt-text-danger-hover-focus-text-color": "color-semantic-danger-hover",
    "lt-nav-link-text-color": "color-palette-azure",
    "dt-nav-link-text-color": "color-palette-azure",
    "lt-nav-link-hover-text-color": "color-palette-azure",
    "dt-nav-link-hover-text-color": "color-palette-azure",
    "lt-nav-link-focus-text-color": "color-palette-azure",
    "dt-nav-link-focus-text-color": "color-palette-azure",
    "lt-nav-link-active-text-color": "color-palette-azure",
    "dt-nav-link-active-text-color": "color-palette-azure",
    "lt-nav-link-visited-text-color": "color-palette-azure",
    "dt-nav-link-visited-text-color": "color-palette-azure",
    "lt-btn-default-text-color": "color-gray-ebony",
    "dt-btn-default-text-color": "color-gray-fadedwhite",
    "lt-btn-default-background-color": "color-gray-fadedwhite",
    "dt-btn-default-background-color": "color-gray-pewter",
    "lt-btn-default-border-color": "color-translucent-black-05",
    "dt-btn-default-border-color": "color-translucent-black-05",
    "lt-btn-default-hover-text-color": "color-gray-coal",
    "dt-btn-default-hover-text-color": "color-gray-silver",
    "lt-btn-default-hover-background-color": "color-gray-fadedwhite",
    "dt-btn-default-hover-background-color": "color-gray-steelgray",
    "lt-btn-default-hover-border-color": "color-translucent-black-05",
    "dt-btn-default-hover-border-color": "color-translucent-black-05",
    "lt-btn-light-text-color": "color-gray-ebony",
    "dt-btn-light-text-color": "color-gray-fadedwhite",
    "lt-btn-light-background-color": "color-gray-fadedwhite",
    "dt-btn-light-background-color": "color-gray-steelgray",
    "lt-btn-light-border-color": "color-const-transparent",
    "dt-btn-light-border-color": "color-const-transparent",
    "lt-btn-light-hover-text-color": "color-gray-coal",
    "dt-btn-light-hover-text-color": "color-gray-silver",
    "lt-btn-light-hover-background-color": "color-gray-lunar",
    "dt-btn-light-hover-background-color": "color-gray-granite",
    "lt-btn-light-hover-border-color": "color-const-transparent",
    "dt-btn-light-hover-border-color": "color-const-transparent",
    "lt-btn-dark-text-color": "color-gray-silver",
    "dt-btn-dark-text-color": "color-gray-silver",
    "lt-btn-dark-background-color": "color-gray-ebony",
    "dt-btn-dark-background-color": "color-gray-ebony",
    "lt-btn-dark-border-color": "color-const-transparent",
    "dt-btn-dark-border-color": "color-const-transparent",
    "lt-btn-dark-hover-text-color": "color-gray-lunar",
    "dt-btn-dark-hover-text-color": "color-gray-lunar",
    "lt-btn-dark-hover-background-color": "color-gray-coal",
    "dt-btn-dark-hover-background-color": "color-gray-coal",
    "lt-btn-dark-hover-border-color": "color-const-transparent",
    "dt-btn-dark-hover-border-color": "color-gray-ebony",
    "lt-btn-info-text-color": "color-gray-ebony",
    "dt-btn-info-text-color": "color-gray-ebony",
    "lt-btn-info-background-color": "color-semantic-info",
    "dt-btn-info-background-color": "color-semantic-info",
    "lt-btn-info-border-color": "color-semantic-info",
    "dt-btn-info-border-color": "color-semantic-info",
    "lt-btn-info-hover-text-color": "color-gray-coal",
    "dt-btn-info-hover-text-color": "color-gray-coal",
    "lt-btn-info-hover-background-color": "color-semantic-info-hover",
    "dt-btn-info-hover-background-color": "color-semantic-info-hover",
    "lt-btn-info-hover-border-color": "color-semantic-info-hover",
    "dt-btn-info-hover-border-color": "color-semantic-info-hover",
    "lt-btn-success-text-color": "color-gray-fadedwhite",
    "dt-btn-success-text-color": "color-gray-fadedwhite",
    "lt-btn-success-background-color": "color-semantic-success",
    "dt-btn-success-background-color": "color-semantic-success",
    "lt-btn-success-border-color": "color-semantic-success",
    "dt-btn-success-border-color": "color-semantic-success",
    "lt-btn-success-hover-text-color": "color-gray-fadedwhite",
    "dt-btn-success-hover-text-color": "color-gray-fadedwhite",
    "lt-btn-success-hover-background-color": "color-semantic-success-hover",
    "dt-btn-success-hover-background-color": "color-semantic-success-hover",
    "lt-btn-success-hover-border-color": "color-semantic-success-hover",
    "dt-btn-success-hover-border-color": "color-semantic-success-hover",
    "lt-btn-warning-text-color": "color-gray-ebony",
    "dt-btn-warning-text-color": "color-gray-ebony",
    "lt-btn-warning-background-color": "color-semantic-warning",
    "dt-btn-warning-background-color": "color-semantic-warning",
    "lt-btn-warning-border-color": "color-semantic-warning",
    "dt-btn-warning-border-color": "color-semantic-warning",
    "lt-btn-warning-hover-text-color": "color-gray-ebony",
    "dt-btn-warning-hover-text-color": "color-gray-ebony",
    "lt-btn-warning-hover-background-color": "color-semantic-warning-hover",
    "dt-btn-warning-hover-background-color": "color-semantic-warning-hover",
    "lt-btn-warning-hover-border-color": "color-semantic-warning-hover",
    "dt-btn-warning-hover-border-color": "color-semantic-warning-hover",
    "lt-btn-danger-text-color": "color-gray-fadedwhite",
    "dt-btn-danger-text-color": "color-gray-fadedwhite",
    "lt-btn-danger-background-color": "color-semantic-danger",
    "dt-btn-danger-background-color": "color-semantic-danger",
    "lt-btn-danger-border-color": "color-semantic-danger",
    "dt-btn-danger-border-color": "color-semantic-danger",
    "lt-btn-danger-hover-text-color": "color-gray-fadedwhite",
    "dt-btn-danger-hover-text-color": "color-gray-fadedwhite",
    "lt-btn-danger-hover-background-color": "color-semantic-danger-hover",
    "dt-btn-danger-hover-background-color": "color-semantic-danger-hover",
    "lt-btn-danger-hover-border-color": "color-semantic-danger-hover",
    "dt-btn-danger-hover-border-color": "color-semantic-danger-hover",
    "lt-btn-shadow-color1": "color-gray-silver",
    "dt-btn-shadow-color1": "color-gray-coal",
    "lt-btn-shadow-color2": "color-gray-lunar",
    "dt-btn-shadow-color2": "color-gray-pewter",
    "lt-btn-hover-shadow-color1": "color-gray-lunar",
    "dt-btn-hover-shadow-color1": "color-gray-pewter",
    "lt-btn-hover-shadow-color2": "color-gray-smoke",
    "dt-btn-hover-shadow-color2": "color-gray-steelgray",
    "lt-btn-tsp-text-color": "color-gray-ebony",
    "dt-btn-tsp-text-color": "color-gray-fadedwhite",
    "lt-btn-tsp-background-color": "color-const-transparent",
    "dt-btn-tsp-background-color": "color-const-transparent",
    "lt-btn-tsp-border-color": "color-const-transparent",
    "dt-btn-tsp-border-color": "color-const-transparent",
    "lt-btn-tsp-hover-text-color": "color-gray-granite",
    "dt-btn-tsp-hover-text-color": "color-gray-smoke",
    "lt-btn-tsp-hover-background-color": "color-const-transparent",
    "dt-btn-tsp-hover-background-color": "color-const-transparent",
    "lt-btn-tsp-hover-border-color": "color-const-transparent",
    "dt-btn-tsp-hover-border-color": "color-const-transparent",
    "lt-btn-tsp-light-text-color": "color-gray-ebony",
    "dt-btn-tsp-light-text-color": "color-gray-fadedwhite",
    "lt-btn-tsp-light-background-color": "color-const-transparent",
    "dt-btn-tsp-light-background-color": "color-const-transparent",
    "lt-btn-tsp-light-border-color": "color-const-transparent",
    "dt-btn-tsp-light-border-color": "color-const-transparent",
    "lt-btn-tsp-light-hover-text-color": "color-gray-coal",
    "dt-btn-tsp-light-hover-text-color": "color-gray-silver",
    "lt-btn-tsp-light-hover-background-color": "color-gray-silver",
    "dt-btn-tsp-light-hover-background-color": "color-gray-pewter",
    "lt-btn-tsp-light-hover-border-color": "color-const-transparent",
    "dt-btn-tsp-light-hover-border-color": "color-const-transparent",
    "lt-btn-tsp-dark-text-color": "color-gray-ebony",
    "dt-btn-tsp-dark-text-color": "color-gray-fadedwhite",
    "lt-btn-tsp-dark-background-color": "color-const-transparent",
    "dt-btn-tsp-dark-background-color": "color-const-transparent",
    "lt-btn-tsp-dark-border-color": "color-const-transparent",
    "dt-btn-tsp-dark-border-color": "color-const-transparent",
    "lt-btn-tsp-dark-hover-text-color": "color-gray-fadedwhite",
    "dt-btn-tsp-dark-hover-text-color": "color-gray-silver",
    "lt-btn-tsp-dark-hover-background-color": "color-const-transparent",
    "dt-btn-tsp-dark-hover-background-color": "color-gray-ebony",
    "lt-btn-tsp-dark-hover-border-color": "color-const-transparent",
    "dt-btn-tsp-dark-hover-border-color": "color-const-transparent",
    "lt-btn-tsp-info-text-color": "color-semantic-info",
    "dt-btn-tsp-info-text-color": "color-semantic-info",
    "lt-btn-tsp-info-background-color": "color-const-transparent",
    "dt-btn-tsp-info-background-color": "color-const-transparent",
    "lt-btn-tsp-info-border-color": "color-const-transparent",
    "dt-btn-tsp-info-border-color": "color-const-transparent",
    "lt-btn-tsp-info-hover-text-color": "color-gray-ebony",
    "dt-btn-tsp-info-hover-text-color": "color-gray-ebony",
    "lt-btn-tsp-info-hover-background-color": "color-semantic-info",
    "dt-btn-tsp-info-hover-background-color": "color-semantic-info",
    "lt-btn-tsp-info-hover-border-color": "color-const-transparent",
    "dt-btn-tsp-info-hover-border-color": "color-const-transparent",
    "lt-btn-tsp-success-text-color": "color-semantic-success",
    "dt-btn-tsp-success-text-color": "color-semantic-success",
    "lt-btn-tsp-success-background-color": "color-const-transparent",
    "dt-btn-tsp-success-background-color": "color-const-transparent",
    "lt-btn-tsp-success-border-color": "color-const-transparent",
    "dt-btn-tsp-success-border-color": "color-const-transparent",
    "lt-btn-tsp-success-hover-text-color": "color-gray-fadedwhite",
    "dt-btn-tsp-success-hover-text-color": "color-gray-fadedwhite",
    "lt-btn-tsp-success-hover-background-color": "color-semantic-success",
    "dt-btn-tsp-success-hover-background-color": "color-semantic-success",
    "lt-btn-tsp-success-hover-border-color": "color-const-transparent",
    "dt-btn-tsp-success-hover-border-color": "color-const-transparent",
    "lt-btn-tsp-warning-text-color": "color-semantic-warning",
    "dt-btn-tsp-warning-text-color": "color-semantic-warning",
    "lt-btn-tsp-warning-background-color": "color-const-transparent",
    "dt-btn-tsp-warning-background-color": "color-const-transparent",
    "lt-btn-tsp-warning-border-color": "color-const-transparent",
    "dt-btn-tsp-warning-border-color": "color-const-transparent",
    "lt-btn-tsp-warning-hover-text-color": "color-gray-ebony",
    "dt-btn-tsp-warning-hover-text-color": "color-gray-ebony",
    "lt-btn-tsp-warning-hover-background-color": "color-semantic-warning",
    "dt-btn-tsp-warning-hover-background-color": "color-semantic-warning",
    "lt-btn-tsp-warning-hover-border-color": "color-const-transparent",
    "dt-btn-tsp-warning-hover-border-color": "color-const-transparent",
    "lt-btn-tsp-danger-text-color": "color-semantic-danger",
    "dt-btn-tsp-danger-text-color": "color-semantic-danger",
    "lt-btn-tsp-danger-background-color": "color-const-transparent",
    "dt-btn-tsp-danger-background-color": "color-const-transparent",
    "lt-btn-tsp-danger-border-color": "color-const-transparent",
    "dt-btn-tsp-danger-border-color": "color-const-transparent",
    "lt-btn-tsp-danger-hover-text-color": "color-gray-fadedwhite",
    "dt-btn-tsp-danger-hover-text-color": "color-gray-fadedwhite",
    "lt-btn-tsp-danger-hover-background-color": "color-semantic-danger",
    "dt-btn-tsp-danger-hover-background-color": "color-semantic-danger",
    "lt-btn-tsp-danger-hover-border-color": "color-const-transparent",
    "dt-btn-tsp-danger-hover-border-color": "color-const-transparent",
    "lt-btn-outline-default-text-color": "color-gray-ebony",
    "dt-btn-outline-default-text-color": "color-gray-fadedwhite",
    "lt-btn-outline-default-background-color": "color-const-transparent",
    "dt-btn-outline-default-background-color": "color-const-transparent",
    "lt-btn-outline-default-border-color": "color-translucent-black-15",
    "dt-btn-outline-default-border-color": "color-translucent-white-30",
    "lt-btn-outline-default-hover-text-color": "color-gray-coal",
    "dt-btn-outline-default-hover-text-color": "color-gray-coal",
    "lt-btn-outline-default-hover-background-color": "color-gray-silver",
    "dt-btn-outline-default-hover-background-color": "color-gray-silver",
    "lt-btn-outline-default-hover-border-color": "color-const-transparent",
    "dt-btn-outline-default-hover-border-color": "color-const-transparent",
    "lt-btn-outline-light-text-color": "color-gray-ebony",
    "dt-btn-outline-light-text-color": "color-gray-fadedwhite",
    "lt-btn-outline-light-background-color": "color-const-transparent",
    "dt-btn-outline-light-background-color": "color-const-transparent",
    "lt-btn-outline-light-border-color": "color-translucent-black-05",
    "dt-btn-outline-light-border-color": "color-translucent-white-15",
    "lt-btn-outline-light-hover-text-color": "color-gray-coal",
    "dt-btn-outline-light-hover-text-color": "color-gray-coal",
    "lt-btn-outline-light-hover-background-color": "color-gray-lunar",
    "dt-btn-outline-light-hover-background-color": "color-gray-lunar",
    "lt-btn-outline-light-hover-border-color": "color-const-transparent",
    "dt-btn-outline-light-hover-border-color": "color-const-transparent",
    "lt-btn-outline-dark-text-color": "color-gray-ebony",
    "dt-btn-outline-dark-text-color": "color-gray-fadedwhite",
    "lt-btn-outline-dark-background-color": "color-const-transparent",
    "dt-btn-outline-dark-background-color": "color-const-transparent",
    "lt-btn-outline-dark-border-color": "color-translucent-black-30",
    "dt-btn-outline-dark-border-color": "color-translucent-black-70",
    "lt-btn-outline-dark-hover-text-color": "color-gray-silver",
    "dt-btn-outline-dark-hover-text-color": "color-gray-silver",
    "lt-btn-outline-dark-hover-background-color": "color-gray-ebony",
    "dt-btn-outline-dark-hover-background-color": "color-gray-ebony",
    "lt-btn-outline-dark-hover-border-color": "color-const-transparent",
    "dt-btn-outline-dark-hover-border-color": "color-const-transparent",
    "lt-btn-outline-info-text-color": "color-gray-ebony",
    "dt-btn-outline-info-text-color": "color-gray-fadedwhite",
    "lt-btn-outline-info-background-color": "color-const-transparent",
    "dt-btn-outline-info-background-color": "color-const-transparent",
    "lt-btn-outline-info-border-color": "color-semantic-info",
    "dt-btn-outline-info-border-color": "color-semantic-info",
    "lt-btn-outline-info-hover-text-color": "color-gray-ebony",
    "dt-btn-outline-info-hover-text-color": "color-gray-ebony",
    "lt-btn-outline-info-hover-background-color": "color-semantic-info",
    "dt-btn-outline-info-hover-background-color": "color-semantic-info",
    "lt-btn-outline-info-hover-border-color": "color-const-transparent",
    "dt-btn-outline-info-hover-border-color": "color-const-transparent",
    "lt-btn-outline-success-text-color": "color-gray-ebony",
    "dt-btn-outline-success-text-color": "color-gray-fadedwhite",
    "lt-btn-outline-success-background-color": "color-const-transparent",
    "dt-btn-outline-success-background-color": "color-const-transparent",
    "lt-btn-outline-success-border-color": "color-semantic-success",
    "dt-btn-outline-success-border-color": "color-semantic-success",
    "lt-btn-outline-success-hover-text-color": "color-gray-fadedwhite",
    "dt-btn-outline-success-hover-text-color": "color-gray-silver",
    "lt-btn-outline-success-hover-background-color": "color-semantic-success",
    "dt-btn-outline-success-hover-background-color": "color-semantic-success",
    "lt-btn-outline-success-hover-border-color": "color-const-transparent",
    "dt-btn-outline-success-hover-border-color": "color-const-transparent",
    "lt-btn-outline-warning-text-color": "color-gray-ebony",
    "dt-btn-outline-warning-text-color": "color-gray-fadedwhite",
    "lt-btn-outline-warning-background-color": "color-const-transparent",
    "dt-btn-outline-warning-background-color": "color-const-transparent",
    "lt-btn-outline-warning-border-color": "color-semantic-warning",
    "dt-btn-outline-warning-border-color": "color-semantic-warning",
    "lt-btn-outline-warning-hover-text-color": "color-gray-ebony",
    "dt-btn-outline-warning-hover-text-color": "color-gray-ebony",
    "lt-btn-outline-warning-hover-background-color": "color-semantic-warning",
    "dt-btn-outline-warning-hover-background-color": "color-semantic-warning",
    "lt-btn-outline-warning-hover-border-color": "color-const-transparent",
    "dt-btn-outline-warning-hover-border-color": "color-const-transparent",
    "lt-btn-outline-danger-text-color": "color-gray-ebony",
    "dt-btn-outline-danger-text-color": "color-gray-fadedwhite",
    "lt-btn-outline-danger-background-color": "color-const-transparent",
    "dt-btn-outline-danger-background-color": "color-const-transparent",
    "lt-btn-outline-danger-border-color": "color-semantic-danger",
    "dt-btn-outline-danger-border-color": "color-semantic-danger",
    "lt-btn-outline-danger-hover-text-color": "color-gray-fadedwhite",
    "dt-btn-outline-danger-hover-text-color": "color-gray-silver",
    "lt-btn-outline-danger-hover-background-color": "color-semantic-danger",
    "dt-btn-outline-danger-hover-background-color": "color-semantic-danger",
    "lt-btn-outline-danger-hover-border-color": "color-const-transparent",
    "dt-btn-outline-danger-hover-border-color": "color-const-transparent",
    "lt-modal-content-border-color": "color-translucent-black-05",
    "dt-modal-content-border-color": "color-translucent-white-15",
    "lt-modal-content-shadow-color": "color-translucent-black-15",
    "dt-modal-content-shadow-color": "color-translucent-black-15",
    "lt-modal-header-background-color": "color-const-white",
    "dt-modal-header-background-color": "color-gray-pewter",
    "lt-modal-header-text-color": "color-const-inherit",
    "dt-modal-header-text-color": "color-const-inherit",
    "lt-modal-header-border-bottom-color": "color-const-transparent",
    "dt-modal-header-border-bottom-color": "color-const-transparent",
    "lt-modal-body-background-color": "color-const-white",
    "dt-modal-body-background-color": "color-gray-pewter",
    "lt-modal-body-text-color": "color-const-inherit",
    "dt-modal-body-text-color": "color-const-inherit",
    "lt-modal-footer-background-color": "color-gray-fadedwhite",
    "dt-modal-footer-background-color": "color-gray-coal",
    "lt-modal-footer-text-color": "color-const-inherit",
    "dt-modal-footer-text-color": "color-const-inherit",
    "lt-modal-footer-border-top-color": "color-const-transparent",
    "dt-modal-footer-border-top-color": "color-const-transparent",
    "lt-pagination-link-text-color": "color-gray-ebony",
    "dt-pagination-link-text-color": "color-gray-lunar",
    "lt-pagination-link-background-color": "color-const-white",
    "dt-pagination-link-background-color": "color-gray-coal",
    "lt-pagination-link-border-color": "color-translucent-black-15",
    "dt-pagination-link-border-color": "color-translucent-black-15",
    "lt-pagination-link-hover-text-color": "color-gray-pewter",
    "dt-pagination-link-hover-text-color": "color-gray-silver",
    "lt-pagination-link-hover-background-color": "color-gray-lunar",
    "dt-pagination-link-hover-background-color": "color-gray-pewter",
    "lt-pagination-link-hover-border-color": "color-translucent-black-05",
    "dt-pagination-link-hover-border-color": "color-translucent-black-45",
    "lt-pagination-link-active-text-color": "color-const-white",
    "dt-pagination-link-active-text-color": "color-const-white",
    "lt-pagination-link-active-background-color": "color-semantic-info",
    "dt-pagination-link-active-background-color": "color-semantic-info",
    "lt-pagination-link-active-border-color": "color-semantic-info",
    "dt-pagination-link-active-border-color": "color-semantic-info",
    "font-body-text": "OpenSans",
    "font-body-heading": "Nunito"
  }
}