{
  "type": "XDM_ENTITY_MAPPING",
  "scmStatus": "",
  "name": "XdmCust6",
  "desc": "",
  "inherited": false,
  "superType": "NONE",
  "superName": "",
  "filePath": "",
  "childs": [],
  "persistenceDetails": {
    "dataStores": [],
    "dataStoreId": "",
    "dataStoreColId": "",
    "dataStoresMap": {}
  },
  "dbType": "RDBMS",
  "masterDataStoreId": "dscust6",
  "dataStores": [
    {
      "dataStoreId": "dscust6",
      "dataStoreName": "CUST6",
      "parentDataStoreId": "dscust6",
      "relationType": "ONETOONE",
      "relation": {
        "relationDefType": "JOIN",
        "relationAttrs": [
          {
            "relationAttr1": "CUST_ID",
            "relationAttr2": "CUST_ID"
          }
        ]
      },
      "propagationColumns": []
    }
  ],
  "dataStoresMap": {},
  "mappings": [
    {
      "uuid": "Cust6.custId",
      "dataStoreId": "dscust6",
      "dataStoreColId": "CUST_ID"
    },
    {
      "uuid": "Cust6.custName",
      "dataStoreId": "dscust6",
      "dataStoreColId": "CUST_NAME"
    },
    {
      "uuid": "Cust6.xStatus",
      "dataStoreId": "dscust6",
      "dataStoreColId": "X_MODEL_STATUS"
    },
    {
      "uuid": "Cust6.xState",
      "dataStoreId": "dscust6",
      "dataStoreColId": "X_MODEL_STATE"
    }
  ],
  "mappingsMap": {},
  "unique": false,
  "CI": true,
  "uuid": "Cust6__DATA_MANAGEMENT__XDM_ENTITY_MAPPINGS__Cust6__XdmCust6",
  "masterDataStore": "",
  "dbRepository": "",
  "dstype": "LOWVOLATILE",
  "key": "",
  "filterable": "",
  "resultSet": "",
  "relationType": "ONETOONE",
  "simpleMandatory": ""
}