{
  "name": "LoginBanner",
  "type": "BACKGROUND",
  "childs": [],
  "bginfo": {
    "size": "cover",
    "repeat": "",
    "origin": "",
    "clip": "",
    "attachment": "",
    "position": "",
    "opacity": "",
    "image-light": "image-light.jpg",
    "image-dark": "image-dark.jpg"
  }
}